{
    "Alt-/": "lua:comment.comment",
    "CtrlUnderscore": "lua:comment.comment",
    "F3": "FindNext",
    "F4": "command:jumptag",
    "F5": "lua:wc.wordCount",
    "F6": "command-edit:gorename "
}
